module snowops

go 1.20

require (
	github.com/BurntSushi/toml v1.2.1
	github.com/alexflint/go-arg v1.4.3
	github.com/jmoiron/sqlx v1.3.5
	github.com/snowflakedb/gosnowflake v1.6.20
	golang.org/x/exp v0.0.0-20220827204233-334a2380cb91
)

require (
	github.com/99designs/go-keychain v0.0.0-20191008050251-8e49817e8af4 // indirect
	github.com/99designs/keyring v1.2.2 // indirect
	github.com/Azure/azure-sdk-for-go/sdk/azcore v1.5.0 // indirect
	github.com/Azure/azure-sdk-for-go/sdk/internal v1.3.0 // indirect
	github.com/Azure/azure-sdk-for-go/sdk/storage/azblob v1.0.0 // indirect
	github.com/alexflint/go-scalar v1.1.0 // indirect
	github.com/andybalholm/brotli v1.0.5 // indirect
	github.com/apache/arrow/go/v10 v10.0.1 // indirect
	github.com/apache/thrift v0.18.1 // indirect
	github.com/aws/aws-sdk-go-v2 v1.18.0 // indirect
	github.com/aws/aws-sdk-go-v2/aws/protocol/eventstream v1.4.10 // indirect
	github.com/aws/aws-sdk-go-v2/credentials v1.13.21 // indirect
	github.com/aws/aws-sdk-go-v2/feature/s3/manager v1.11.64 // indirect
	github.com/aws/aws-sdk-go-v2/internal/configsources v1.1.33 // indirect
	github.com/aws/aws-sdk-go-v2/internal/endpoints/v2 v2.4.27 // indirect
	github.com/aws/aws-sdk-go-v2/internal/v4a v1.0.25 // indirect
	github.com/aws/aws-sdk-go-v2/service/internal/accept-encoding v1.9.11 // indirect
	github.com/aws/aws-sdk-go-v2/service/internal/checksum v1.1.28 // indirect
	github.com/aws/aws-sdk-go-v2/service/internal/presigned-url v1.9.27 // indirect
	github.com/aws/aws-sdk-go-v2/service/internal/s3shared v1.14.2 // indirect
	github.com/aws/aws-sdk-go-v2/service/s3 v1.33.0 // indirect
	github.com/aws/smithy-go v1.13.5 // indirect
	github.com/danieljoos/wincred v1.1.2 // indirect
	github.com/dvsekhvalnov/jose2go v1.5.0 // indirect
	github.com/form3tech-oss/jwt-go v3.2.5+incompatible // indirect
	github.com/gabriel-vasile/mimetype v1.4.2 // indirect
	github.com/goccy/go-json v0.10.2 // indirect
	github.com/godbus/dbus v0.0.0-20190726142602-4481cbc300e2 // indirect
	github.com/golang/snappy v0.0.4 // indirect
	github.com/google/flatbuffers v23.3.3+incompatible // indirect
	github.com/gsterjov/go-libsecret v0.0.0-20161001094733-a6f4afe4910c // indirect
	github.com/jmespath/go-jmespath v0.4.0 // indirect
	github.com/klauspost/asmfmt v1.3.2 // indirect
	github.com/klauspost/compress v1.16.5 // indirect
	github.com/klauspost/cpuid/v2 v2.2.4 // indirect
	github.com/minio/asm2plan9s v0.0.0-20200509001527-cdd76441f9d8 // indirect
	github.com/minio/c2goasm v0.0.0-20190812172519-36a3d3bbc4f3 // indirect
	github.com/mtibben/percent v0.2.1 // indirect
	github.com/pierrec/lz4/v4 v4.1.17 // indirect
	github.com/pkg/browser v0.0.0-20210911075715-681adbf594b8 // indirect
	github.com/sirupsen/logrus v1.9.0 // indirect
	github.com/zeebo/xxh3 v1.0.2 // indirect
	golang.org/x/crypto v0.8.0 // indirect
	golang.org/x/mod v0.10.0 // indirect
	golang.org/x/net v0.9.0 // indirect
	golang.org/x/sys v0.7.0 // indirect
	golang.org/x/term v0.7.0 // indirect
	golang.org/x/text v0.9.0 // indirect
	golang.org/x/tools v0.8.0 // indirect
	golang.org/x/xerrors v0.0.0-20220907171357-04be3eba64a2 // indirect
)
